{
    "pizza_in": [
        "3", "5", "1", "6",
        "TTTTT", "TMMMT", "TTTTT"
    ],
    "pizza_out": {
        "noRows": "3", "noCols": "5",
        "minIngredients": "1", "maxCells": "6",
        "rows": [
            { "row": "TTTTT" }, { "row": "TMMMT" }, { "row": "TTTTT" }
        ]
    },
    "videos_in": [
        5, 2, 4, 3, 100,
        50, 50, 80, 30, 110,
        1000, 3,
        0, 100,
        2, 200,
        1, 300,
        500, 0,
        3, 0, 1500,
        0, 1, 1000,
        4, 0, 500,
        1, 0, 1000
    ],
    "videos_out": {
        "v": 5, "e": 2, "r": 4, "c": 3, "s": 100,
        "videos": [
            { "size": 50 },
            { "size": 50 },
            { "size": 80 },
            { "size": 30 },
            { "size": 110 }
        ],
        "endpoints": [
            { "latency": 1000, "cc": 3, "caches": [
                { "id": 0, "latency": 100 },
                { "id": 2, "latency": 200 },
                { "id": 1, "latency": 300 }
            ] },
            { "latency": 500, "cc": 0, "caches": [] }
        ],
        "requests": [
            { "video": 3, "endpoint": 0, "weight": 1500 },
            { "video": 0, "endpoint": 1, "weight": 1000 },
            { "video": 4, "endpoint": 0, "weight": 500 },
            { "video": 1, "endpoint": 0, "weight": 1000 }
        ]
    },
    "drones_in": [
        100, 100, 3, 50, 500, 
        3,
        100, 5, 450,
        2,
        0, 0,
        5, 1, 0,
        5, 5,
        0, 10, 2,
        3,
        1, 1,
        2,
        2, 0,
        3, 3,
        1,
        0,
        5, 6,
        1, 
        2
    ],
    "drones_out": {
        "rows": 100,
        "cols": 100,
        "drones": 3,
        "turns": 50,
        "maxLoad": 500,
        "noProducts": 3,
        "products": [
            { "weight": 100 }, { "weight": 5 }, { "weight": 450 }
        ],
        "noWarehouses": 2,
        "warehouses": [
            { "x": 0, "y": 0, "storedProducts": [
                { "qty": 5 }, { "qty": 1 }, { "qty": 0 }
            ]},
            { "x": 5, "y": 5, "storedProducts": [
                { "qty": 0 }, { "qty": 10 }, { "qty": 2 }
            ]}
        ],
        "noOrders": 3,
        "orders": [
            { "x": 1, "y": 1, "noItems": 2, "items": [
                { "productType": 2 }, { "productType": 0 }
            ]},
            { "x": 3, "y": 3, "noItems": 1, "items": [
                { "productType": 0 }
            ]},
            { "x": 5, "y": 6, "noItems": 1, "items": [
                { "productType": 2 }
            ]}
        ]
    }
}